id;source_wallet;target_wallet;amount;type;payment_state;payment_tx_id;payment_message
1;Cliffs Slovenia hierarchy;impactful;10079;LOAN_TRANSFER;FAILED;Outdoors;Pitcairn Islands
2;card Cambridgeshire;Mountains compressing Baby;79227;LOAN_TRANSFER;FAILED;Legacy;RAM
3;Customer Buckinghamshire;Group;98158;LOAN_TRANSFER;FAILED;Nigeria Practical;synthesize quantify
4;global;optimize Identity Administrator;1195;LOAN_TRANSFER;PENDING;Practical Steel Shirt matrix Refined;Canada Practical Vermont
5;COM;wireless;44303;LOAN_TRANSFER;PENDING;Forward;Interactions
6;EXE Guinea Franc Savings Account;Cotton;86354;FEES_TRANSFER;FAILED;Strategist portals;orange Wooden
7;monitor;input Grocery Oklahoma;16179;LOAN_TRANSFER;FAILED;Handmade Granite Soap;Niger Grocery
8;global;Towels Hat;44862;LOAN_TRANSFER;PENDING;program optical;Albania
9;incremental Implemented Avon;alarm;47635;LOAN_TRANSFER;PENDING;Analyst;indexing
10;Granite;Lebanon Canadian Dollar Mandatory;60680;LOAN_TRANSFER;PENDING;mobile;Fresh violet Arizona
