{
    "name": "UMETransfer",
    "fields": [
        {
            "fieldName": "sourceWallet",
            "fieldType": "String",
            "fieldValidateRules": [
                "required"
            ]
        },
        {
            "fieldName": "targetWallet",
            "fieldType": "String",
            "fieldValidateRules": [
                "required"
            ]
        },
        {
            "fieldName": "amount",
            "fieldType": "Double",
            "fieldValidateRules": [
                "required"
            ]
        },
        {
            "fieldName": "type",
            "fieldType": "TransferType",
            "fieldValues": "FEES_TRANSFER,LOAN_TRANSFER"
        },
        {
            "fieldName": "paymentState",
            "fieldType": "PaymentState",
            "fieldValues": "PENDING,SUCCESS,FAILED"
        },
        {
            "fieldName": "paymentTxId",
            "fieldType": "String"
        },
        {
            "fieldName": "paymentMessage",
            "fieldType": "String"
        }
    ],
    "relationships": [
        {
            "relationshipType": "many-to-one",
            "otherEntityName": "loanFile",
            "otherEntityRelationshipName": "transfer",
            "relationshipName": "loanFile",
            "otherEntityField": "id"
        }
    ],
    "changelogDate": "20200612013200",
    "entityTableName": "ume_transfer",
    "dto": "mapstruct",
    "pagination": "pagination",
    "service": "serviceImpl",
    "jpaMetamodelFiltering": false,
    "fluentMethods": true,
    "readOnly": false,
    "clientRootFolder": "loan",
    "applications": "*",
    "microserviceName": "loan"
}